^D:\U-22\U-22_3A\RISE A BABBLE\GAMEMAIN.CPP|D:\U-22\U-22_3A\RISE A BABBLE\INERTIA.CPP|D:\U-22\U-22_3A\RISE A BABBLE\SOURCE.CPP
D:\U-22\U-22_3A\RISE A BABBLE\DEBUG\VC141.PDB
D:\U-22\U-22_3A\RISE A BABBLE\DEBUG\VC141.IDB
D:\U-22\U-22_3A\RISE A BABBLE\DEBUG\INERTIA.OBJ
D:\U-22\U-22_3A\RISE A BABBLE\DEBUG\SOURCE.OBJ
D:\U-22\U-22_3A\RISE A BABBLE\DEBUG\GAMEMAIN.OBJ
^D:\U-22\U-22_3A\RISE A BABBLE\CHANGER.CPP|D:\U-22\U-22_3A\RISE A BABBLE\GAMEMAIN.CPP|D:\U-22\U-22_3A\RISE A BABBLE\MAIN.CPP|D:\U-22\U-22_3A\RISE A BABBLE\OPTION.CPP|D:\U-22\U-22_3A\RISE A BABBLE\RESULT.CPP|D:\U-22\U-22_3A\RISE A BABBLE\TITLE.CPP
D:\U-22\U-22_3A\RISE A BABBLE\DEBUG\VC141.PDB
D:\U-22\U-22_3A\RISE A BABBLE\DEBUG\VC141.IDB
D:\U-22\U-22_3A\RISE A BABBLE\DEBUG\TITLE.OBJ
D:\U-22\U-22_3A\RISE A BABBLE\DEBUG\RESULT.OBJ
D:\U-22\U-22_3A\RISE A BABBLE\DEBUG\OPTION.OBJ
D:\U-22\U-22_3A\RISE A BABBLE\DEBUG\GAMEMAIN.OBJ
D:\U-22\U-22_3A\RISE A BABBLE\DEBUG\MAIN.OBJ
D:\U-22\U-22_3A\RISE A BABBLE\DEBUG\CHANGER.OBJ
^D:\U-22\U-22_3A\RISE A BABBLE\CHANGER.CPP|D:\U-22\U-22_3A\RISE A BABBLE\MAIN.CPP
D:\U-22\U-22_3A\RISE A BABBLE\DEBUG\VC141.PDB
D:\U-22\U-22_3A\RISE A BABBLE\DEBUG\VC141.IDB
D:\U-22\U-22_3A\RISE A BABBLE\DEBUG\MAIN.OBJ
D:\U-22\U-22_3A\RISE A BABBLE\DEBUG\CHANGER.OBJ
^D:\U-22\U-22_3A\RISE A BABBLE\CHANGER.CPP|D:\U-22\U-22_3A\RISE A BABBLE\GAMEMAIN.CPP|D:\U-22\U-22_3A\RISE A BABBLE\INPUT.CPP|D:\U-22\U-22_3A\RISE A BABBLE\MAIN.CPP|D:\U-22\U-22_3A\RISE A BABBLE\OPTION.CPP|D:\U-22\U-22_3A\RISE A BABBLE\RESULT.CPP|D:\U-22\U-22_3A\RISE A BABBLE\TITLE.CPP
D:\U-22\U-22_3A\RISE A BABBLE\DEBUG\VC141.PDB
D:\U-22\U-22_3A\RISE A BABBLE\DEBUG\VC141.IDB
D:\U-22\U-22_3A\RISE A BABBLE\DEBUG\TITLE.OBJ
D:\U-22\U-22_3A\RISE A BABBLE\DEBUG\RESULT.OBJ
D:\U-22\U-22_3A\RISE A BABBLE\DEBUG\OPTION.OBJ
D:\U-22\U-22_3A\RISE A BABBLE\DEBUG\MAIN.OBJ
D:\U-22\U-22_3A\RISE A BABBLE\DEBUG\INPUT.OBJ
D:\U-22\U-22_3A\RISE A BABBLE\DEBUG\GAMEMAIN.OBJ
^D:\U-22\U-22_3A\RISE A BABBLE\ENDING.CPP|D:\U-22\U-22_3A\RISE A BABBLE\MAIN.CPP
D:\U-22\U-22_3A\RISE A BABBLE\DEBUG\VC141.PDB
D:\U-22\U-22_3A\RISE A BABBLE\DEBUG\VC141.IDB
D:\U-22\U-22_3A\RISE A BABBLE\DEBUG\ENDING.OBJ
D:\U-22\U-22_3A\RISE A BABBLE\DEBUG\MAIN.OBJ
^D:\U-22\U-22_3A\RISE A BABBLE\MAIN.CPP|D:\U-22\U-22_3A\RISE A BABBLE\TITLE.CPP
D:\U-22\U-22_3A\RISE A BABBLE\DEBUG\VC141.PDB
D:\U-22\U-22_3A\RISE A BABBLE\DEBUG\VC141.IDB
D:\U-22\U-22_3A\RISE A BABBLE\DEBUG\TITLE.OBJ
D:\U-22\U-22_3A\RISE A BABBLE\DEBUG\MAIN.OBJ
^D:\U-22\U-22_3A\RISE A BABBLE\ENDING.CPP|D:\U-22\U-22_3A\RISE A BABBLE\GAMEMAIN.CPP|D:\U-22\U-22_3A\RISE A BABBLE\INPUT.CPP|D:\U-22\U-22_3A\RISE A BABBLE\MAIN.CPP|D:\U-22\U-22_3A\RISE A BABBLE\OPTION.CPP|D:\U-22\U-22_3A\RISE A BABBLE\RESULT.CPP|D:\U-22\U-22_3A\RISE A BABBLE\TITLE.CPP
D:\U-22\U-22_3A\RISE A BABBLE\DEBUG\VC141.PDB
D:\U-22\U-22_3A\RISE A BABBLE\DEBUG\VC141.IDB
D:\U-22\U-22_3A\RISE A BABBLE\DEBUG\TITLE.OBJ
D:\U-22\U-22_3A\RISE A BABBLE\DEBUG\RESULT.OBJ
D:\U-22\U-22_3A\RISE A BABBLE\DEBUG\OPTION.OBJ
D:\U-22\U-22_3A\RISE A BABBLE\DEBUG\MAIN.OBJ
D:\U-22\U-22_3A\RISE A BABBLE\DEBUG\INPUT.OBJ
D:\U-22\U-22_3A\RISE A BABBLE\DEBUG\GAMEMAIN.OBJ
D:\U-22\U-22_3A\RISE A BABBLE\DEBUG\ENDING.OBJ
^D:\U-22\U-22_3A\RISE A BABBLE\INPUT.CPP
D:\U-22\U-22_3A\RISE A BABBLE\DEBUG\VC141.PDB
^D:\U-22\U-22_3A\RISE A BABBLE\ENDING.CPP|D:\U-22\U-22_3A\RISE A BABBLE\MAIN.CPP|D:\U-22\U-22_3A\RISE A BABBLE\TITLE.CPP
D:\U-22\U-22_3A\RISE A BABBLE\DEBUG\VC141.PDB
D:\U-22\U-22_3A\RISE A BABBLE\DEBUG\VC141.IDB
D:\U-22\U-22_3A\RISE A BABBLE\DEBUG\TITLE.OBJ
D:\U-22\U-22_3A\RISE A BABBLE\DEBUG\MAIN.OBJ
D:\U-22\U-22_3A\RISE A BABBLE\DEBUG\ENDING.OBJ
^D:\U-22\U-22_3A\RISE A BABBLE\ENDING.CPP
D:\U-22\U-22_3A\RISE A BABBLE\DEBUG\VC141.PDB
^D:\U-22\U-22_3A\RISE A BABBLE\GAMEMAIN.CPP|D:\U-22\U-22_3A\RISE A BABBLE\MAIN.CPP|D:\U-22\U-22_3A\RISE A BABBLE\OPTION.CPP|D:\U-22\U-22_3A\RISE A BABBLE\TITLE.CPP
D:\U-22\U-22_3A\RISE A BABBLE\DEBUG\VC141.PDB
D:\U-22\U-22_3A\RISE A BABBLE\DEBUG\VC141.IDB
D:\U-22\U-22_3A\RISE A BABBLE\DEBUG\TITLE.OBJ
D:\U-22\U-22_3A\RISE A BABBLE\DEBUG\OPTION.OBJ
D:\U-22\U-22_3A\RISE A BABBLE\DEBUG\MAIN.OBJ
D:\U-22\U-22_3A\RISE A BABBLE\DEBUG\GAMEMAIN.OBJ
^D:\U-22\U-22_3A\RISE A BABBLE\MAIN.CPP
D:\U-22\U-22_3A\RISE A BABBLE\DEBUG\VC141.PDB
^D:\U-22\U-22_3A\RISE A BABBLE\OPTION.CPP
D:\U-22\U-22_3A\RISE A BABBLE\DEBUG\VC141.PDB
^D:\U-22\U-22_3A\RISE A BABBLE\TITLE.CPP
D:\U-22\U-22_3A\RISE A BABBLE\DEBUG\VC141.PDB
^D:\U-22\U-22_3A\RISE A BABBLE\GAMEMAIN.CPP|D:\U-22\U-22_3A\RISE A BABBLE\RESULT.CPP
D:\U-22\U-22_3A\RISE A BABBLE\DEBUG\VC141.PDB
D:\U-22\U-22_3A\RISE A BABBLE\DEBUG\VC141.IDB
D:\U-22\U-22_3A\RISE A BABBLE\DEBUG\RESULT.OBJ
D:\U-22\U-22_3A\RISE A BABBLE\DEBUG\GAMEMAIN.OBJ
^D:\U-22\U-22_3A\RISE A BABBLE\RESULT.CPP
D:\U-22\U-22_3A\RISE A BABBLE\DEBUG\VC141.PDB
D:\U-22\U-22_3A\RISE A BABBLE\DEBUG\VC141.IDB
D:\U-22\U-22_3A\RISE A BABBLE\DEBUG\RESULT.OBJ
^D:\U-22\U-22_3A\RISE A BABBLE\GAMEMAIN.CPP
D:\U-22\U-22_3A\RISE A BABBLE\DEBUG\VC141.PDB
D:\U-22\U-22_3A\RISE A BABBLE\DEBUG\VC141.IDB
D:\U-22\U-22_3A\RISE A BABBLE\DEBUG\GAMEMAIN.OBJ
