^D:\U-22\U-22_3A\RISE A BABBLE\DEBUG\ENDING.OBJ|D:\U-22\U-22_3A\RISE A BABBLE\DEBUG\GAMEMAIN.OBJ|D:\U-22\U-22_3A\RISE A BABBLE\DEBUG\INPUT.OBJ|D:\U-22\U-22_3A\RISE A BABBLE\DEBUG\MAIN.OBJ|D:\U-22\U-22_3A\RISE A BABBLE\DEBUG\OPTION.OBJ|D:\U-22\U-22_3A\RISE A BABBLE\DEBUG\RESULT.OBJ|D:\U-22\U-22_3A\RISE A BABBLE\DEBUG\TITLE.OBJ
C:\PROGRAM FILES (X86)\WINDOWS KITS\10\LIB\10.0.17763.0\UM\X86\KERNEL32.LIB
C:\PROGRAM FILES (X86)\WINDOWS KITS\10\LIB\10.0.17763.0\UM\X86\USER32.LIB
C:\PROGRAM FILES (X86)\WINDOWS KITS\10\LIB\10.0.17763.0\UM\X86\GDI32.LIB
C:\PROGRAM FILES (X86)\WINDOWS KITS\10\LIB\10.0.17763.0\UM\X86\WINSPOOL.LIB
C:\PROGRAM FILES (X86)\WINDOWS KITS\10\LIB\10.0.17763.0\UM\X86\COMDLG32.LIB
C:\PROGRAM FILES (X86)\WINDOWS KITS\10\LIB\10.0.17763.0\UM\X86\ADVAPI32.LIB
C:\PROGRAM FILES (X86)\WINDOWS KITS\10\LIB\10.0.17763.0\UM\X86\SHELL32.LIB
C:\PROGRAM FILES (X86)\WINDOWS KITS\10\LIB\10.0.17763.0\UM\X86\OLE32.LIB
C:\PROGRAM FILES (X86)\WINDOWS KITS\10\LIB\10.0.17763.0\UM\X86\OLEAUT32.LIB
C:\PROGRAM FILES (X86)\WINDOWS KITS\10\LIB\10.0.17763.0\UM\X86\UUID.LIB
C:\PROGRAM FILES (X86)\WINDOWS KITS\10\LIB\10.0.17763.0\UM\X86\ODBC32.LIB
C:\PROGRAM FILES (X86)\WINDOWS KITS\10\LIB\10.0.17763.0\UM\X86\ODBCCP32.LIB
D:\U-22\U-22_3A\RISE A BABBLE\DEBUG\INPUT.OBJ
D:\U-22\U-22_3A\RISE A BABBLE\DEBUG\MAIN.OBJ
D:\U-22\U-22_3A\RISE A BABBLE\DEBUG\GAMEMAIN.OBJ
D:\U-22\U-22_3A\RISE A BABBLE\DEBUG\OPTION.OBJ
D:\U-22\U-22_3A\RISE A BABBLE\DEBUG\RESULT.OBJ
D:\U-22\U-22_3A\RISE A BABBLE\DEBUG\ENDING.OBJ
D:\U-22\U-22_3A\RISE A BABBLE\DEBUG\TITLE.OBJ
C:\WINDOWS\SYSTEM32\TZRES.DLL
C:\WINDOWS\GLOBALIZATION\SORTING\SORTDEFAULT.NLS
C:\DXLIB_VC\プロジェクトに追加すべきファイル_VC用\DXDRAWFUNC_VS2015_X86_D.LIB
C:\DXLIB_VC\プロジェクトに追加すべきファイル_VC用\DXLIB_VS2015_X86_D.LIB
C:\DXLIB_VC\プロジェクトに追加すべきファイル_VC用\DXUSECLIB_VS2015_X86_D.LIB
C:\DXLIB_VC\プロジェクトに追加すべきファイル_VC用\LIBBULLETCOLLISION_VS2015_X86_D.LIB
C:\DXLIB_VC\プロジェクトに追加すべきファイル_VC用\LIBBULLETDYNAMICS_VS2015_X86_D.LIB
C:\DXLIB_VC\プロジェクトに追加すべきファイル_VC用\LIBBULLETMATH_VS2015_X86_D.LIB
C:\DXLIB_VC\プロジェクトに追加すべきファイル_VC用\LIBTIFF_VS2015_X86_D.LIB
C:\DXLIB_VC\プロジェクトに追加すべきファイル_VC用\LIBPNG_VS2015_X86_D.LIB
C:\DXLIB_VC\プロジェクトに追加すべきファイル_VC用\ZLIB_VS2015_X86_D.LIB
C:\DXLIB_VC\プロジェクトに追加すべきファイル_VC用\LIBJPEG_VS2015_X86_D.LIB
C:\DXLIB_VC\プロジェクトに追加すべきファイル_VC用\OGG_STATIC_VS2015_X86_D.LIB
C:\DXLIB_VC\プロジェクトに追加すべきファイル_VC用\VORBIS_STATIC_VS2015_X86_D.LIB
C:\DXLIB_VC\プロジェクトに追加すべきファイル_VC用\VORBISFILE_STATIC_VS2015_X86_D.LIB
C:\DXLIB_VC\プロジェクトに追加すべきファイル_VC用\LIBTHEORA_STATIC_VS2015_X86_D.LIB
C:\DXLIB_VC\プロジェクトに追加すべきファイル_VC用\OPUS_VS2015_X86_D.LIB
C:\DXLIB_VC\プロジェクトに追加すべきファイル_VC用\OPUSFILE_VS2015_X86_D.LIB
C:\DXLIB_VC\プロジェクトに追加すべきファイル_VC用\SILK_COMMON_VS2015_X86_D.LIB
C:\DXLIB_VC\プロジェクトに追加すべきファイル_VC用\CELT_VS2015_X86_D.LIB
D:\PROGRAM FILES (X86)\MICROSOFT VISUAL STUDIO\2017\COMMUNITY\VC\TOOLS\MSVC\14.16.27023\LIB\X86\LIBCMTD.LIB
D:\PROGRAM FILES (X86)\MICROSOFT VISUAL STUDIO\2017\COMMUNITY\VC\TOOLS\MSVC\14.16.27023\LIB\X86\OLDNAMES.LIB
D:\PROGRAM FILES (X86)\MICROSOFT VISUAL STUDIO\2017\COMMUNITY\VC\TOOLS\MSVC\14.16.27023\LIB\X86\LIBCPMTD.LIB
D:\PROGRAM FILES (X86)\MICROSOFT VISUAL STUDIO\2017\COMMUNITY\VC\TOOLS\MSVC\14.16.27023\LIB\X86\LIBVCRUNTIMED.LIB
C:\PROGRAM FILES (X86)\WINDOWS KITS\10\LIB\10.0.17763.0\UCRT\X86\LIBUCRTD.LIB
