^D:\U-22\U-22_3A\RISE A BABBLE\DEBUG\ENDING.OBJ|D:\U-22\U-22_3A\RISE A BABBLE\DEBUG\GAMEMAIN.OBJ|D:\U-22\U-22_3A\RISE A BABBLE\DEBUG\INPUT.OBJ|D:\U-22\U-22_3A\RISE A BABBLE\DEBUG\MAIN.OBJ|D:\U-22\U-22_3A\RISE A BABBLE\DEBUG\OPTION.OBJ|D:\U-22\U-22_3A\RISE A BABBLE\DEBUG\RESULT.OBJ|D:\U-22\U-22_3A\RISE A BABBLE\DEBUG\TITLE.OBJ
D:\U-22\U-22_3A\RISE A BABBLE\DEBUG\RISE A BABBLE.EXE
D:\U-22\U-22_3A\RISE A BABBLE\DEBUG\RISE A BABBLE.ILK
D:\U-22\U-22_3A\RISE A BABBLE\DEBUG\RISE A BABBLE.PDB
