^C:\USERS\GS139\SOURCE\REPOS\U-22\DEBUG\CRIMP.OBJ
C:\USERS\GS139\SOURCE\REPOS\DEBUG\U-22.EXE
C:\USERS\GS139\SOURCE\REPOS\DEBUG\U-22.ILK
C:\USERS\GS139\SOURCE\REPOS\DEBUG\U-22.PDB
^D:\U-22\RYUSEI\U-22\DEBUG\CRIMP.OBJ
D:\U-22\RYUSEI\U-22\DEBUG\U-22.ILK
D:\U-22\RYUSEI\U-22\DEBUG\U-22.EXE
D:\U-22\RYUSEI\U-22\DEBUG\U-22.PDB
