^C:\Users\gs139\source\repos\U-22\U-22.vcxproj
C:\Users\gs139\source\repos\Debug\U-22.lib
C:\Users\gs139\source\repos\Debug\U-22.exp
^C:\Users\gs139\source\repos\U-22\U-22.vcxproj
C:\Users\gs139\source\repos\Debug\U-22.lib
C:\Users\gs139\source\repos\Debug\U-22.exp
^C:\Users\gs139\source\repos\U-22\U-22.vcxproj
C:\Users\gs139\source\repos\Debug\U-22.lib
C:\Users\gs139\source\repos\Debug\U-22.exp
^C:\Users\gs139\source\repos\U-22\U-22.vcxproj
C:\Users\gs139\source\repos\Debug\U-22.lib
C:\Users\gs139\source\repos\Debug\U-22.exp
^C:\Users\gs139\source\repos\U-22\U-22.vcxproj
C:\Users\gs139\source\repos\Debug\U-22.lib
C:\Users\gs139\source\repos\Debug\U-22.exp
^C:\Users\gs139\source\repos\U-22\U-22.vcxproj
C:\Users\gs139\source\repos\Debug\U-22.lib
C:\Users\gs139\source\repos\Debug\U-22.exp
^C:\Users\gs139\source\repos\U-22\U-22.vcxproj
C:\Users\gs139\source\repos\Debug\U-22.lib
C:\Users\gs139\source\repos\Debug\U-22.exp
^C:\Users\gs139\source\repos\U-22\U-22.vcxproj
C:\Users\gs139\source\repos\Debug\U-22.lib
C:\Users\gs139\source\repos\Debug\U-22.exp
^C:\Users\gs139\source\repos\U-22\U-22.vcxproj
C:\Users\gs139\source\repos\Debug\U-22.lib
C:\Users\gs139\source\repos\Debug\U-22.exp
^C:\Users\gs139\source\repos\U-22\U-22.vcxproj
C:\Users\gs139\source\repos\Debug\U-22.lib
C:\Users\gs139\source\repos\Debug\U-22.exp
^C:\Users\gs139\source\repos\U-22\U-22.vcxproj
C:\Users\gs139\source\repos\Debug\U-22.lib
C:\Users\gs139\source\repos\Debug\U-22.exp
^C:\Users\gs139\source\repos\U-22\U-22.vcxproj
C:\Users\gs139\source\repos\Debug\U-22.lib
C:\Users\gs139\source\repos\Debug\U-22.exp
^C:\Users\gs139\source\repos\U-22\U-22.vcxproj
C:\Users\gs139\source\repos\Debug\U-22.lib
C:\Users\gs139\source\repos\Debug\U-22.exp
^C:\Users\gs139\source\repos\U-22\U-22.vcxproj
C:\Users\gs139\source\repos\Debug\U-22.lib
C:\Users\gs139\source\repos\Debug\U-22.exp
^C:\Users\gs139\source\repos\U-22\U-22.vcxproj
C:\Users\gs139\source\repos\Debug\U-22.lib
C:\Users\gs139\source\repos\Debug\U-22.exp
^C:\Users\gs139\source\repos\U-22\U-22.vcxproj
C:\Users\gs139\source\repos\Debug\U-22.lib
C:\Users\gs139\source\repos\Debug\U-22.exp
^C:\Users\gs139\source\repos\U-22\U-22.vcxproj
C:\Users\gs139\source\repos\Debug\U-22.lib
C:\Users\gs139\source\repos\Debug\U-22.exp
^C:\Users\gs139\source\repos\U-22\U-22.vcxproj
C:\Users\gs139\source\repos\Debug\U-22.lib
C:\Users\gs139\source\repos\Debug\U-22.exp
^C:\Users\gs139\source\repos\U-22\U-22.vcxproj
C:\Users\gs139\source\repos\Debug\U-22.lib
C:\Users\gs139\source\repos\Debug\U-22.exp
^C:\Users\gs139\source\repos\U-22\U-22.vcxproj
C:\Users\gs139\source\repos\Debug\U-22.lib
C:\Users\gs139\source\repos\Debug\U-22.exp
^C:\Users\gs139\source\repos\U-22\U-22.vcxproj
C:\Users\gs139\source\repos\Debug\U-22.lib
C:\Users\gs139\source\repos\Debug\U-22.exp
^C:\Users\gs139\source\repos\U-22\U-22.vcxproj
C:\Users\gs139\source\repos\Debug\U-22.lib
C:\Users\gs139\source\repos\Debug\U-22.exp
^C:\Users\gs139\source\repos\U-22\U-22.vcxproj
C:\Users\gs139\source\repos\Debug\U-22.lib
C:\Users\gs139\source\repos\Debug\U-22.exp
^C:\Users\gs139\source\repos\U-22\U-22.vcxproj
C:\Users\gs139\source\repos\Debug\U-22.lib
C:\Users\gs139\source\repos\Debug\U-22.exp
^C:\Users\gs139\source\repos\U-22\U-22.vcxproj
C:\Users\gs139\source\repos\Debug\U-22.lib
C:\Users\gs139\source\repos\Debug\U-22.exp
^C:\Users\gs139\source\repos\U-22\U-22.vcxproj
C:\Users\gs139\source\repos\Debug\U-22.lib
C:\Users\gs139\source\repos\Debug\U-22.exp
^C:\Users\gs139\source\repos\U-22\U-22.vcxproj
C:\Users\gs139\source\repos\Debug\U-22.lib
C:\Users\gs139\source\repos\Debug\U-22.exp
^C:\Users\gs139\source\repos\U-22\U-22.vcxproj
C:\Users\gs139\source\repos\Debug\U-22.lib
C:\Users\gs139\source\repos\Debug\U-22.exp
^C:\Users\gs139\source\repos\U-22\U-22.vcxproj
C:\Users\gs139\source\repos\Debug\U-22.lib
C:\Users\gs139\source\repos\Debug\U-22.exp
^C:\Users\gs139\source\repos\U-22\U-22.vcxproj
C:\Users\gs139\source\repos\Debug\U-22.lib
C:\Users\gs139\source\repos\Debug\U-22.exp
^C:\Users\gs139\source\repos\U-22\U-22.vcxproj
C:\Users\gs139\source\repos\Debug\U-22.lib
C:\Users\gs139\source\repos\Debug\U-22.exp
^C:\Users\gs139\source\repos\U-22\U-22.vcxproj
C:\Users\gs139\source\repos\Debug\U-22.lib
C:\Users\gs139\source\repos\Debug\U-22.exp
^C:\Users\gs139\source\repos\U-22\U-22.vcxproj
C:\Users\gs139\source\repos\Debug\U-22.lib
C:\Users\gs139\source\repos\Debug\U-22.exp
^C:\Users\gs139\source\repos\U-22\U-22.vcxproj
C:\Users\gs139\source\repos\Debug\U-22.lib
C:\Users\gs139\source\repos\Debug\U-22.exp
^C:\Users\gs139\source\repos\U-22\U-22.vcxproj
C:\Users\gs139\source\repos\Debug\U-22.lib
C:\Users\gs139\source\repos\Debug\U-22.exp
^C:\Users\gs139\source\repos\U-22\U-22.vcxproj
C:\Users\gs139\source\repos\Debug\U-22.lib
C:\Users\gs139\source\repos\Debug\U-22.exp
^C:\Users\gs139\source\repos\U-22\U-22.vcxproj
C:\Users\gs139\source\repos\Debug\U-22.lib
C:\Users\gs139\source\repos\Debug\U-22.exp
^C:\Users\gs139\source\repos\U-22\U-22.vcxproj
C:\Users\gs139\source\repos\Debug\U-22.lib
C:\Users\gs139\source\repos\Debug\U-22.exp
^C:\Users\gs139\source\repos\U-22\U-22.vcxproj
C:\Users\gs139\source\repos\Debug\U-22.lib
C:\Users\gs139\source\repos\Debug\U-22.exp
^C:\Users\gs139\source\repos\U-22\U-22.vcxproj
C:\Users\gs139\source\repos\Debug\U-22.lib
C:\Users\gs139\source\repos\Debug\U-22.exp
^C:\Users\gs139\source\repos\U-22\U-22.vcxproj
C:\Users\gs139\source\repos\Debug\U-22.lib
C:\Users\gs139\source\repos\Debug\U-22.exp
^C:\Users\gs139\source\repos\U-22\U-22.vcxproj
C:\Users\gs139\source\repos\Debug\U-22.lib
C:\Users\gs139\source\repos\Debug\U-22.exp
^C:\Users\gs139\source\repos\U-22\U-22.vcxproj
C:\Users\gs139\source\repos\Debug\U-22.lib
C:\Users\gs139\source\repos\Debug\U-22.exp
^C:\Users\gs139\source\repos\U-22\U-22.vcxproj
C:\Users\gs139\source\repos\Debug\U-22.lib
C:\Users\gs139\source\repos\Debug\U-22.exp
^C:\Users\gs139\source\repos\U-22\U-22.vcxproj
C:\Users\gs139\source\repos\Debug\U-22.lib
C:\Users\gs139\source\repos\Debug\U-22.exp
^C:\Users\gs139\source\repos\U-22\U-22.vcxproj
C:\Users\gs139\source\repos\Debug\U-22.lib
C:\Users\gs139\source\repos\Debug\U-22.exp
^C:\Users\gs139\source\repos\U-22\U-22.vcxproj
C:\Users\gs139\source\repos\Debug\U-22.lib
C:\Users\gs139\source\repos\Debug\U-22.exp
^C:\Users\gs139\source\repos\U-22\U-22.vcxproj
C:\Users\gs139\source\repos\Debug\U-22.lib
C:\Users\gs139\source\repos\Debug\U-22.exp
^C:\Users\gs139\source\repos\U-22\U-22.vcxproj
C:\Users\gs139\source\repos\Debug\U-22.lib
C:\Users\gs139\source\repos\Debug\U-22.exp
^C:\Users\gs139\source\repos\U-22\U-22.vcxproj
C:\Users\gs139\source\repos\Debug\U-22.lib
C:\Users\gs139\source\repos\Debug\U-22.exp
^C:\Users\gs139\source\repos\U-22\U-22.vcxproj
C:\Users\gs139\source\repos\Debug\U-22.lib
C:\Users\gs139\source\repos\Debug\U-22.exp
^C:\Users\gs139\source\repos\U-22\U-22.vcxproj
C:\Users\gs139\source\repos\Debug\U-22.lib
C:\Users\gs139\source\repos\Debug\U-22.exp
^C:\Users\gs139\source\repos\U-22\U-22.vcxproj
C:\Users\gs139\source\repos\Debug\U-22.lib
C:\Users\gs139\source\repos\Debug\U-22.exp
^C:\Users\gs139\source\repos\U-22\U-22.vcxproj
C:\Users\gs139\source\repos\Debug\U-22.lib
C:\Users\gs139\source\repos\Debug\U-22.exp
^C:\Users\gs139\source\repos\U-22\U-22.vcxproj
C:\Users\gs139\source\repos\Debug\U-22.lib
C:\Users\gs139\source\repos\Debug\U-22.exp
^C:\Users\gs139\source\repos\U-22\U-22.vcxproj
C:\Users\gs139\source\repos\Debug\U-22.lib
C:\Users\gs139\source\repos\Debug\U-22.exp
^C:\Users\gs139\source\repos\U-22\U-22.vcxproj
C:\Users\gs139\source\repos\Debug\U-22.lib
C:\Users\gs139\source\repos\Debug\U-22.exp
^C:\Users\gs139\source\repos\U-22\U-22.vcxproj
C:\Users\gs139\source\repos\Debug\U-22.lib
C:\Users\gs139\source\repos\Debug\U-22.exp
^C:\Users\gs139\source\repos\U-22\U-22.vcxproj
C:\Users\gs139\source\repos\Debug\U-22.lib
C:\Users\gs139\source\repos\Debug\U-22.exp
^C:\Users\gs139\source\repos\U-22\U-22.vcxproj
C:\Users\gs139\source\repos\Debug\U-22.lib
C:\Users\gs139\source\repos\Debug\U-22.exp
^C:\Users\gs139\source\repos\U-22\U-22.vcxproj
C:\Users\gs139\source\repos\Debug\U-22.lib
C:\Users\gs139\source\repos\Debug\U-22.exp
^C:\Users\gs139\source\repos\U-22\U-22.vcxproj
C:\Users\gs139\source\repos\Debug\U-22.lib
C:\Users\gs139\source\repos\Debug\U-22.exp
^C:\Users\gs139\source\repos\U-22\U-22.vcxproj
C:\Users\gs139\source\repos\Debug\U-22.lib
C:\Users\gs139\source\repos\Debug\U-22.exp
^C:\Users\gs139\source\repos\U-22\U-22.vcxproj
C:\Users\gs139\source\repos\Debug\U-22.lib
C:\Users\gs139\source\repos\Debug\U-22.exp
^C:\Users\gs139\source\repos\U-22\U-22.vcxproj
C:\Users\gs139\source\repos\Debug\U-22.lib
C:\Users\gs139\source\repos\Debug\U-22.exp
^C:\Users\gs139\source\repos\U-22\U-22.vcxproj
C:\Users\gs139\source\repos\Debug\U-22.lib
C:\Users\gs139\source\repos\Debug\U-22.exp
^C:\Users\gs139\source\repos\U-22\U-22.vcxproj
C:\Users\gs139\source\repos\Debug\U-22.lib
C:\Users\gs139\source\repos\Debug\U-22.exp
^C:\Users\gs139\source\repos\U-22\U-22.vcxproj
C:\Users\gs139\source\repos\Debug\U-22.lib
C:\Users\gs139\source\repos\Debug\U-22.exp
^C:\Users\gs139\source\repos\U-22\U-22.vcxproj
C:\Users\gs139\source\repos\Debug\U-22.lib
C:\Users\gs139\source\repos\Debug\U-22.exp
^C:\Users\gs139\source\repos\U-22\U-22.vcxproj
C:\Users\gs139\source\repos\Debug\U-22.lib
C:\Users\gs139\source\repos\Debug\U-22.exp
^C:\Users\gs139\source\repos\U-22\U-22.vcxproj
C:\Users\gs139\source\repos\Debug\U-22.lib
C:\Users\gs139\source\repos\Debug\U-22.exp
^C:\Users\gs139\source\repos\U-22\U-22.vcxproj
C:\Users\gs139\source\repos\Debug\U-22.lib
C:\Users\gs139\source\repos\Debug\U-22.exp
^C:\Users\gs139\source\repos\U-22\U-22.vcxproj
C:\Users\gs139\source\repos\Debug\U-22.lib
C:\Users\gs139\source\repos\Debug\U-22.exp
^C:\Users\gs139\source\repos\U-22\U-22.vcxproj
C:\Users\gs139\source\repos\Debug\U-22.lib
C:\Users\gs139\source\repos\Debug\U-22.exp
^C:\Users\gs139\source\repos\U-22\U-22.vcxproj
C:\Users\gs139\source\repos\Debug\U-22.lib
C:\Users\gs139\source\repos\Debug\U-22.exp
^C:\Users\gs139\source\repos\U-22\U-22.vcxproj
C:\Users\gs139\source\repos\Debug\U-22.lib
C:\Users\gs139\source\repos\Debug\U-22.exp
^C:\Users\gs139\source\repos\U-22\U-22.vcxproj
C:\Users\gs139\source\repos\Debug\U-22.lib
C:\Users\gs139\source\repos\Debug\U-22.exp
^C:\Users\gs139\source\repos\U-22\U-22.vcxproj
C:\Users\gs139\source\repos\Debug\U-22.lib
C:\Users\gs139\source\repos\Debug\U-22.exp
^C:\Users\gs139\source\repos\U-22\U-22.vcxproj
C:\Users\gs139\source\repos\Debug\U-22.lib
C:\Users\gs139\source\repos\Debug\U-22.exp
^C:\Users\gs139\source\repos\U-22\U-22.vcxproj
C:\Users\gs139\source\repos\Debug\U-22.lib
C:\Users\gs139\source\repos\Debug\U-22.exp
^C:\Users\gs139\source\repos\U-22\U-22.vcxproj
C:\Users\gs139\source\repos\Debug\U-22.lib
C:\Users\gs139\source\repos\Debug\U-22.exp
^C:\Users\gs139\source\repos\U-22\U-22.vcxproj
C:\Users\gs139\source\repos\Debug\U-22.lib
C:\Users\gs139\source\repos\Debug\U-22.exp
^C:\Users\gs139\source\repos\U-22\U-22.vcxproj
C:\Users\gs139\source\repos\Debug\U-22.lib
C:\Users\gs139\source\repos\Debug\U-22.exp
^C:\Users\gs139\source\repos\U-22\U-22.vcxproj
C:\Users\gs139\source\repos\Debug\U-22.lib
C:\Users\gs139\source\repos\Debug\U-22.exp
^C:\Users\gs139\source\repos\U-22\U-22.vcxproj
C:\Users\gs139\source\repos\Debug\U-22.lib
C:\Users\gs139\source\repos\Debug\U-22.exp
^D:\U-22\Ryusei\U-22\U-22.vcxproj
D:\U-22\Ryusei\U-22\Debug\U-22.lib
D:\U-22\Ryusei\U-22\Debug\U-22.exp
