0:ChangeWindowMode実行 
2:ウインドウモードフラグが立てられました
35:ＤＸライブラリの初期化処理開始
49:	システムの情報を出力します
51:		ＤＸライブラリ Ver3.16b
52:		論理プロセッサの数 : 4
55:		ＯＳ  Windows10 ( Build 17134  )
157:		現時点のＣＰＵ動作速度：大体2.12GHz
163:		ＭＭＸ命令を使用します
195:		ＳＳＥ命令が使用可能です
217:		ＳＳＥ２命令が使用可能です
235:		ＣＰＵベンダ：GenuineIntel
253:		ＣＰＵ名：Intel(R) Core(TM) i7 CPU       L 640  @ 2.13GHz
254:	ＣＯＭの初期化... 成功しました
283:	メモリ総量:2991.37MB  空きメモリ領域:393.74MB 
285:	タイマーの精度を検査します
286:	精度結果 更新回数 マルチメディアタイマー：0  パフォーマンスカウンター：60
287:	 パフォーマンスカウンターを使用します タイマー精度 : 2078.123000 KHz 
288:	 ソフトの二重起動検査... 二重起動はされていませんでした
290:	ウインドウクラスを登録します... 登録に成功しました
296:	ウインドウモード起動用のウインドウを作成します
306:	ディスプレイ情報のセットアップ開始
309:		モニターの数：1  ディスプレイデバイスの数：2
315:		No.0  モニター名：\\.\DISPLAY1　1280x800　32bit　60Hz
344:	ディスプレイ情報のセットアップ完了
362:	ウインドウの作成に成功しました
363:	ウインドウを表示します
432:	ＩＭＥを無効にしました
436:	ウインドウスタイルをウインドウモード用に変更します... 完了
626:	DirectInput関係初期化処理
815:		XInput DLL の読み込み中... 成功
824:		DirectInput7 の取得中... 成功
861:			引き続き初期化処理... 初期化成功
865:		ジョイパッドの初期化... 
872:		ジョイパッドナンバー 0 は Xbox360 Controller です
885:		入力装置を見つけました
886:			Device Instance Name : Controller (Gamepad F310)
887:			Device Product Name  : Controller (Gamepad F310)
888:		周期的エフェクトの作成に失敗しました。
890:		ジョイパッドの追加は正常に終了しました
891:		ジョイパッドの初期化は正常に終了しました
891:		マウスデバイスの初期化... 初期化成功
894:		キーボードデバイスの初期化... 初期化成功
895:	DirectInput 関連の初期化は正常に終了しました
905:	DirectSound の初期化を行います
906:	DirectSound インターフェースの取得を行います....  成功
918:	引き続きインターフェースの初期化処理...  成功
1135:		DirectSound デバイスを列挙します
1137:			Module Name :                   Description : プライマリ サウンド ドライバー 
1137:			Module Name : {0.0.0.00000000}.{c81e9bf2-db1a-4c1b-8175-069bb67cba8b}   Description : スピーカー (2- Logicool G430 Gaming Headset) 
1138:			Module Name : {0.0.0.00000000}.{ad77db16-b155-451e-965c-ecbf192fc85b}   Description : スピーカー (High Definition Audio デバイス) 
1139:		最大サンプリングレート:200.00KHz 最小サンプリングレート:0.10KHz 
1139:		総サウンドメモリ領域:0.00KB 空きサウンドメモリ領域:0.00KB 

1140:		利用可能サンプリング精度
1140:		  Primary    16bit = OK  8bit = OK 
1142:		  Secondary  16bit = OK  8bit = OK 

1143:		利用可能チャンネル
1143:		  Primary    MONO = OK   STEREO = OK 
1144:		  Secondary  MONO = OK   STEREO = OK 

1145:	DirectSound の初期化は正常に終了しました
1150:	d3d11.dll の読み込み.... 成功
1158:	dxgi.dll の読み込み.... 成功
1159:	API CreateDXGIFactory のアドレスを取得します.... 成功
1160:	IDXGIFactory を作成します.... 成功
1180:	API D3D11CreateDevice のアドレスを取得します.... 成功
1186:	IDXGIAdapter を取得します.... 成功
1197:	Direct3D 11 FeatureLevel 11_0 以上を対象とします
1199:	ID3D11Device オブジェクトを取得します.... 失敗
1212:	d3d11.dll の解放 1
1219:	dxgi.dll の解放 1
1224:	Direct3D11 のオブジェクト数を出力
1225:	Direct3D11 のオブジェクト合計数 : 0
1232:	DirectDraw オブジェクトの取得を行います....  成功
1244:	引き続き初期化処理... 初期化に成功しました
1319:	IDirect3D9Ex オブジェクトを取得します.... 成功
1331:	IDirect3DDevice9Ex オブジェクトを取得します.... ハードウエア頂点演算を使用します
1623:	成功
1625:	Driver:igdumdx32.dll  Description:Intel(R) HD Graphics
1625:	画面のフォーマットは D3DFMT_X8R8G8B8 です
1626:	16bit Zバッファフォーマットは D3DFMT_D16 です
1626:	24bit Zバッファフォーマットは D3DFMT_D24X8 です
1627:	32bit Zバッファフォーマットは D3DFMT_D24X8 です
1628:	16bit カラーフォーマットは D3DFMT_R5G6B5 です
1628:	32bit カラーフォーマットは D3DFMT_X8R8G8B8 です
1629:	アルファ付き 16bit カラーフォーマットは D3DFMT_A4R4G4B4 です
1630:	アルファ付き 32bit カラーフォーマットは D3DFMT_A8R8G8B8 です
1630:	アルファテスト用 16bit カラーフォーマットは D3DFMT_A1R5G5B5 です
1631:	アルファテスト用 32bit カラーフォーマットは D3DFMT_A8R8G8B8 です
1631:	ＤＸＴ１テクスチャフォーマットはD3DFMT_DXT1 です
1633:	ＤＸＴ２テクスチャフォーマットはD3DFMT_DXT2 です
1633:	ＤＸＴ３テクスチャフォーマットはD3DFMT_DXT3 です
1634:	ＤＸＴ４テクスチャフォーマットはD3DFMT_DXT4 です
1634:	ＤＸＴ５テクスチャフォーマットはD3DFMT_DXT5 です
1635:	ABGR 整数 16 ビット型カラーフォーマットは D3DFMT_A16B16G16R16 です
1636:	ABGR 浮動小数点 16 ビット型カラーフォーマットは D3DFMT_A16B16G16R16F です
1636:	ABGR 浮動小数点 32 ビット型カラーフォーマットは D3DFMT_A32B32G32R32F です
1637:	１チャンネル整数 8 ビット型カラーフォーマットは D3DFMT_A8R8G8B8 です
1637:	１チャンネル整数 16 ビット型カラーフォーマットは D3DFMT_G16R16 です
1638:	１チャンネル浮動小数点 16 ビット型カラーフォーマットは D3DFMT_R16F です
1639:	１チャンネル浮動小数点 32 ビット型カラーフォーマットは D3DFMT_R32F です
1639:	２チャンネル整数 8 ビット型カラーフォーマットは D3DFMT_A8B8G8R8 です
1640:	２チャンネル整数 16 ビット型カラーフォーマットは D3DFMT_G16R16 です
1641:	２チャンネル浮動小数点 16 ビット型カラーフォーマットは D3DFMT_G16R16F です
1641:	２チャンネル浮動小数点 32 ビット型カラーフォーマットは D3DFMT_G32R32F です
1642:	描画用 16bit カラーフォーマットは D3DFMT_R5G6B5 です
1643:	描画用 32bit カラーフォーマットは D3DFMT_X8R8G8B8 です
1644:	描画用アルファ付き 32bit カラーフォーマットは D3DFMT_A8R8G8B8 です
1645:	描画用 ABGR 整数 16 ビット型カラーフォーマットは D3DFMT_A16B16G16R16 です
1645:	描画用 ABGR 浮動小数点 16 ビット型カラーフォーマットは D3DFMT_A16B16G16R16F です
1646:	描画用 ABGR 浮動小数点 32 ビット型カラーフォーマットは D3DFMT_A32B32G32R32F です
1647:	描画用１チャンネル整数 8 ビット型カラーフォーマットは D3DFMT_A8R8G8B8 です
1647:	描画用１チャンネル整数 16 ビット型カラーフォーマットは D3DFMT_G16R16 です
1648:	描画用１チャンネル浮動小数点 16 ビット型カラーフォーマットは D3DFMT_R16F です
1648:	描画用１チャンネル浮動小数点 32 ビット型カラーフォーマットは D3DFMT_R32F です
1649:	描画用２チャンネル整数 8 ビット型カラーフォーマットは D3DFMT_A8B8G8R8 です
1650:	描画用２チャンネル整数 16 ビット型カラーフォーマットは D3DFMT_G16R16 です
1650:	描画用２チャンネル浮動小数点 16 ビット型カラーフォーマットは D3DFMT_G16R16F です
1651:	描画用２チャンネル浮動小数点 32 ビット型カラーフォーマットは D3DFMT_G32R32F です
1652:	一度に描画できるプリミティブの最大数:1048575
1653:	対応している最大頂点インデックス:16777215
1654:	同時にレンダリングできるバッファの数:4
1654:	最大テクスチャサイズ　幅:8192 高さ:8192
1655:	テクスチャステージテンポラリレジスタ：使用可
1656:	減算合成のハードウェア対応：ネイティブ
1656:	ハードウェア頂点シェーダーバージョンコード：300
1657:	エミュレーション頂点シェーダーバージョンコード：エミュレーション無し
1658:	ピクセルシェーダーバージョンコード：300
1889:	バックバッファロック転送の時間:12808nsec  一時的な描画可能バッファを使用した転送の時間:1849nsec
1890:	バックバッファロックを使用しません
1890:	Ｚバッファを作成します.... 成功
1971:	プログラマブルシェーダーを使用します

2252:	フォントの初期化を行います
2256:	フォントの初期化は正常に終了しました
2265:	文字コードバッファの初期化を行います... 完了しました
2268:ＤＸライブラリの初期化処理終了
81388:ウインドウを閉じようとしています
81419:ウインドウが破棄されようとしています
81421:ソフトを終了する準備が整いました
81456:フォントの初期化を行います
81470:フォントの初期化は正常に終了しました
81512:Direct3DDevice9 の解放 2
81789:d3d9.dll の解放 1
81792:DirectInput 関連の終了処理... 完了
81809:DirectSound の終了処理は正常に終了しました
82019:
82020:Alloc memory dump
82022:	Total size:0(0.000kb)  Alloc num:0
82024:
